{
"params":["Click_Logo","Click_Car","Click_CTA"],
"trackingPixels":["Click_Logo","Choise_Color_1","Choise_Color_2","Choise_Color_3","Choise_Color_4","Choise_Color_5","Choise_Color_6","Choise_Color_7","Choise_Color_8","Choise_Color_9",
  "Choise_Color_1_1","Choise_Color_2_2","Choise_Color_3_3","Choise_Color_4_4","Choise_Color_5_5","Choise_Color_6_6","Choise_Color_7_7","Choise_Color_8_8","Choise_Color_9_9",
  "Click_Car","Click_CTA","pixel_Click_CTA_2","pixel_Click_Car_2","pixel_Click_Logo_2"]
}
